<svg xmlns="http://www.w3.org/2000/svg" xmlns:xlink="http://www.w3.org/1999/xlink" viewBox="0 0 81 71">
	<g fill="none">
		<path fill="currentColor" fill-rule="evenodd" style="fill:var(--g-icon-highlight)" d="M63.126 60.215h-8.352c-.924 0-1.674.604-1.674 1.348 0 .745.75 1.348 1.674 1.348h8.352c.924 0 1.674-.603 1.674-1.348 0-.744-.75-1.348-1.674-1.348zm-13.507 0H17.88c-.928 0-1.681.604-1.681 1.348 0 .745.753 1.348 1.681 1.348h31.74c.928 0 1.681-.603 1.681-1.348 0-.744-.753-1.348-1.681-1.348zm10.721 8.089h-3.68c-.971 0-1.76.603-1.76 1.348 0 .744.789 1.348 1.76 1.348h3.68c.971 0 1.76-.604 1.76-1.348 0-.745-.788-1.348-1.76-1.348zm-24.253 0h-4.674c-.946 0-1.713.603-1.713 1.348 0 .744.767 1.348 1.713 1.348h4.674c.946 0 1.713-.604 1.713-1.348 0-.745-.767-1.348-1.713-1.348zm-10.747 0h-3.88c-.917 0-1.66.603-1.66 1.348 0 .744.743 1.348 1.66 1.348h3.88c.917 0 1.66-.604 1.66-1.348 0-.745-.743-1.348-1.66-1.348zm26.023 0H41.337c-.96 0-1.737.603-1.737 1.348 0 .744.778 1.348 1.737 1.348h10.026c.96 0 1.737-.604 1.737-1.348 0-.745-.778-1.348-1.737-1.348z"></path>
		<path fill="currentColor" fill-rule="evenodd" d="M79.347 45.264h-3.989v-5.448a7.288 7.288 0 0 0 3.968 1.168c.913 0 1.653-.732 1.653-1.634 0-.903-.74-1.634-1.653-1.634-2.188 0-3.968-1.76-3.968-3.922v-.349a7.288 7.288 0 0 0 3.968 1.169c.913 0 1.653-.732 1.653-1.634 0-.903-.74-1.634-1.653-1.634-2.188 0-3.968-1.76-3.968-3.922v-.349a7.288 7.288 0 0 0 3.968 1.169c.913 0 1.653-.732 1.653-1.634 0-.903-.74-1.634-1.653-1.634-2.188 0-3.968-1.76-3.968-3.922 0-.902-.74-1.634-1.653-1.634s-1.653.732-1.653 1.634c0 2.163-1.78 3.922-3.967 3.922-.913 0-1.653.731-1.653 1.634 0 .902.74 1.634 1.653 1.634a7.29 7.29 0 0 0 3.967-1.169v.35c0 2.162-1.78 3.92-3.967 3.92-.913 0-1.653.732-1.653 1.635 0 .902.74 1.634 1.653 1.634a7.29 7.29 0 0 0 3.967-1.169v.35c0 2.162-1.78 3.92-3.967 3.92-.913 0-1.653.732-1.653 1.635 0 .902.74 1.634 1.653 1.634a7.29 7.29 0 0 0 3.967-1.168v5.448H66.6l-12.042-21.34c.28.02.562.033.846.033 6.551 0 11.881-5.268 11.881-11.744S61.955.469 55.404.469A11.949 11.949 0 0 0 44.88 6.776L41.53.838A1.66 1.66 0 0 0 40.107 0a1.654 1.654 0 0 0-1.444.802l-5.893 9.847-2.114-3.477a1.657 1.657 0 0 0-1.417-.793h-.008a1.657 1.657 0 0 0-1.417.807L5.18 45.264H1.653C.74 45.264 0 45.995 0 46.898c0 .902.74 1.634 1.653 1.634h77.694c.913 0 1.653-.732 1.653-1.634 0-.903-.74-1.634-1.653-1.634zM55.404 3.737c4.728 0 8.575 3.802 8.575 8.476 0 4.674-3.847 8.476-8.575 8.476a8.594 8.594 0 0 1-2.968-.525L47 10.534c.796-3.91 4.317-6.797 8.403-6.797zM9.015 45.264l18.572-31.245v8.233c0 .247.057.491.166.714l3.262 6.638-6.102 8.043a1.62 1.62 0 0 0 .018 1.984l4.434 5.633H9.015zm24.538 0l-5.237-6.655 5.95-7.843c.37-.49.434-1.143.164-1.694l-3.537-7.196v-7.968L49.95 45.264H33.553zm20.256 0l-19.104-31.43 5.339-8.92 22.77 40.35H53.81z"></path>
		<path fill="currentColor" fill-rule="evenodd" style="fill:var(--g-icon-highlight)" d="M11.078 53.025H6.022c-.84 0-1.522.604-1.522 1.348 0 .745.682 1.349 1.522 1.349h5.056c.84 0 1.522-.604 1.522-1.349 0-.744-.682-1.348-1.522-1.348zm63.742 0h-9.24c-.928 0-1.68.604-1.68 1.348 0 .745.752 1.349 1.68 1.349h9.24c.928 0 1.68-.604 1.68-1.349 0-.744-.752-1.348-1.68-1.348zm-15.273 0H16.953c-.913 0-1.653.604-1.653 1.348 0 .745.74 1.349 1.653 1.349h42.594c.913 0 1.653-.604 1.653-1.349 0-.744-.74-1.348-1.653-1.348z"></path>
	</g>
</svg>

