<svg xmlns="http://www.w3.org/2000/svg" xmlns:xlink="http://www.w3.org/1999/xlink" viewBox="0 0 86 79">
	<g fill="none">
		<path fill="currentColor" fill-rule="evenodd" style="fill:var(--g-icon-highlight)" d="M60.97 26.207a1.523 1.523 0 0 0-.41-.768 1.499 1.499 0 0 0-.767-.41 1.485 1.485 0 0 0-.868.086 1.499 1.499 0 0 0-.673.552 1.48 1.48 0 0 0-.223.54 1.477 1.477 0 0 0 0 .587 1.563 1.563 0 0 0 .223.538 1.427 1.427 0 0 0 .414.416A1.518 1.518 0 0 0 59.5 28c.394 0 .781-.16 1.06-.44a1.509 1.509 0 0 0 .41-1.353z"></path>
		<path fill="currentColor" fill-rule="evenodd" d="M78.443 63.853H74.66v-26.34l2.428 2.663a1.68 1.68 0 0 0 2.11.306l5.507-3.33a1.68 1.68 0 0 0 .356-2.587L53.186.53a1.68 1.68 0 0 0-2.452 0L18.858 34.564a1.681 1.681 0 0 0 .357 2.588l5.507 3.33a1.677 1.677 0 0 0 2.11-.306l2.428-2.664v6.27H1.68A1.68 1.68 0 0 0 0 45.464V71.6c0 .928.752 1.68 1.68 1.68h14.058a1.68 1.68 0 0 0 1.68-1.68v-2.366h5.49a1.68 1.68 0 0 0 1.658-1.418l5.608 7.307A9.976 9.976 0 0 0 38.039 79h40.404C82.61 79 86 75.608 86 71.44v-.027c0-4.168-3.39-7.56-7.557-7.56zm-64.385 3.7v2.366H3.36V47.144h10.7v20.409zm7.17-1.68h-3.81v-18.73h3.81v18.73zM25.28 36.89l-2.551-1.542L51.96 4.139l29.232 31.21-2.551 1.543-25.44-27.9a1.68 1.68 0 0 0-2.482 0l-21.02 23.052-4.42 4.847zm26.681 4.993c-3.13 0-6.056 1.215-8.242 3.38a10.366 10.366 0 0 0-5.36-1.481H32.62v-9.955l5.064-5.553H54.18a1.68 1.68 0 0 0 0-3.361H40.748L51.96 12.618l19.34 21.21v30.025h-7.597V53.632c0-6.478-5.268-11.748-11.743-11.748zm5.026 16.131l-.023-.029a7.3 7.3 0 0 0-.24-.292l-.06-.07a7.281 7.281 0 0 0-.292-.312l-10.046-9.89a8.312 8.312 0 0 1 5.635-2.177c4.623 0 8.383 3.762 8.383 8.387v10.221h-2.088c.117-.51.178-1.037.178-1.573a6.96 6.96 0 0 0-1.447-4.265zm21.457 17.624H38.038a6.596 6.596 0 0 1-5.2-2.564l-8.25-10.748V47.144h13.77c1.67 0 3.253.578 4.521 1.638l.017.015a8.024 8.024 0 0 1 .42.378l10.689 10.523.036.04c.069.07.135.143.197.217.045.054.085.11.126.167.025.035.053.069.077.104.048.071.092.144.135.218l.04.065c.044.081.084.164.123.248l.022.047c.038.086.072.174.103.262l.016.045a3.669 3.669 0 0 1 .143.58l.012.077c.011.082.02.163.026.245a3.73 3.73 0 0 1 .01.334c0 .033-.003.067-.005.1-.003.08-.007.16-.016.24l-.004.029a3.633 3.633 0 0 1-.227.904l-.007.018a3.635 3.635 0 0 1-.104.23l-.04.084a4.25 4.25 0 0 1-.112.195 1.64 1.64 0 0 1-.063.106 5.59 5.59 0 0 1-.124.177c-.03.04-.058.08-.089.12a3.854 3.854 0 0 1-.28.317l-.012.011a3.652 3.652 0 0 1-5.16 0l-6.988-6.99a1.68 1.68 0 1 0-2.375 2.376l6.987 6.991c.085.085.173.168.261.248.047.042.095.082.142.122.043.037.085.075.129.11.06.049.12.095.182.141l.097.076c.071.052.144.101.217.15l.07.05c.068.045.138.087.207.13.03.017.058.036.088.054l.21.117c.031.017.061.035.092.05.097.052.194.1.293.146l.015.007a7.022 7.022 0 0 0 7.914-1.407l.012-.011.023-.024h22.039a4.203 4.203 0 0 1 4.197 4.2v.026a4.203 4.203 0 0 1-4.197 4.2z"></path>
		<path fill="currentColor" fill-rule="evenodd" style="fill:var(--g-icon-highlight)" d="M36.56 53.439a1.48 1.48 0 0 0-.768-.41 1.512 1.512 0 0 0-1.352.41 1.512 1.512 0 0 0-.41 1.354 1.472 1.472 0 0 0 .224.54 1.505 1.505 0 0 0 2.079.416 1.532 1.532 0 0 0 .413-.417c.056-.08.101-.168.139-.258.037-.091.067-.186.087-.28a1.512 1.512 0 0 0-.411-1.355z"></path>
	</g>
</svg>

