<svg xmlns="http://www.w3.org/2000/svg" xmlns:xlink="http://www.w3.org/1999/xlink" viewBox="0 0 69 52">
	<g fill="none">
		<path fill="currentColor" fill-rule="evenodd" d="M64.188 8.527h-17.18V5.526A5.53 5.53 0 0 0 41.488 0H27.512a5.53 5.53 0 0 0-5.521 5.526v3H4.812A4.82 4.82 0 0 0 0 13.344v33.841A4.82 4.82 0 0 0 4.812 52h59.376A4.82 4.82 0 0 0 69 47.184V13.343a4.82 4.82 0 0 0-4.812-4.816zM24.741 5.526a2.776 2.776 0 0 1 2.772-2.775h13.974a2.776 2.776 0 0 1 2.772 2.775v3H24.741v-3zm41.51 41.658a2.066 2.066 0 0 1-2.063 2.065H4.812a2.066 2.066 0 0 1-2.063-2.065V20.638l21.103 10.245c.428 2.61 2.697 4.61 5.425 4.61h10.446c2.728 0 4.997-2 5.425-4.61l13.181-6.4a1.376 1.376 0 0 0-1.2-2.475l-12.291 5.967a5.506 5.506 0 0 0-5.115-3.488H29.277a5.506 5.506 0 0 0-5.115 3.488L2.75 17.58v-4.237c0-1.139.925-2.065 2.063-2.065h59.376c1.137 0 2.063.926 2.063 2.065v33.841zM26.528 29.99a2.753 2.753 0 0 1 2.749-2.752h10.446a2.753 2.753 0 0 1 2.75 2.752 2.753 2.753 0 0 1-2.75 2.75H29.277a2.753 2.753 0 0 1-2.749-2.75z"></path>
		<path fill="currentColor" fill-rule="evenodd" style="fill:var(--g-icon-highlight)" d="M64.382 20.604c-.33-.776-1.151-1.099-1.832-.723l-.842.464c-.681.376-.966 1.31-.635 2.085.237.557.726.88 1.235.88.2 0 .404-.05.597-.156l.841-.465c.682-.376.966-1.31.636-2.085z"></path>
	</g>
</svg>

