<svg xmlns="http://www.w3.org/2000/svg" xmlns:xlink="http://www.w3.org/1999/xlink" viewBox="0 0 16 16">
	<path fill="currentColor" fill-rule="evenodd" d="M12.96 16L8 12.885 3.04 16l1.279-5.895L0 6.148l5.76-.507L8 0l2.24 5.56 5.76.588-4.319 3.957z"></path>
</svg>
