<svg xmlns="http://www.w3.org/2000/svg" xmlns:xlink="http://www.w3.org/1999/xlink" viewBox="0 0 59 72">
	<g fill="none">
		<path fill="currentColor" fill-rule="evenodd" d="M58.364 7.78a1.362 1.362 0 0 0-1.322-.095 18.134 18.134 0 0 1-7.73 1.712c-6.368 0-12.218-3.27-15.65-8.747A1.377 1.377 0 0 0 32.497 0h-5.994c-.472 0-.911.245-1.165.65-3.432 5.477-9.282 8.747-15.65 8.747-2.696 0-5.297-.576-7.73-1.712a1.362 1.362 0 0 0-1.322.094A1.412 1.412 0 0 0 0 8.963v32.744c0 3.944 1.576 8.008 4.684 12.079 2.411 3.158 5.756 6.34 9.94 9.457 7.064 5.26 14.012 8.496 14.304 8.631a1.361 1.361 0 0 0 1.144 0c.292-.135 7.24-3.37 14.303-8.631 4.185-3.117 7.53-6.299 9.94-9.457C57.425 49.715 59 45.65 59 41.706V8.964c0-.48-.24-.925-.636-1.184zm-2.128 33.927c0 13.59-22.803 25.396-26.736 27.33-3.933-1.934-26.736-13.74-26.736-27.33V11.039a20.85 20.85 0 0 0 6.925 1.17c7.06 0 13.567-3.498 17.556-9.397h4.51c3.989 5.9 10.496 9.398 17.556 9.398 2.386 0 4.707-.393 6.925-1.17v30.667z"></path>
		<path fill="currentColor" fill-rule="evenodd" d="M51.995 15.114a1.327 1.327 0 0 0-1.05-.351c-.839.092-1.697.14-2.55.14-7.084 0-13.725-3.228-18.221-8.855a1.34 1.34 0 0 0-1.046-.51h-.349a1.34 1.34 0 0 0-1.045.51c-4.497 5.627-11.138 8.854-18.22 8.854-.855 0-1.713-.047-2.551-.14a1.327 1.327 0 0 0-1.05.352 1.42 1.42 0 0 0-.45 1.042v25.302c0 2.553 1.084 5.336 3.223 8.27 2.037 2.794 4.983 5.666 8.757 8.535 4.057 3.085 8.16 5.473 10.887 6.934a1.32 1.32 0 0 0 1.248 0c2.727-1.46 6.83-3.849 10.887-6.934 3.773-2.87 6.72-5.74 8.756-8.535 2.14-2.934 3.223-5.717 3.223-8.27V16.156c0-.397-.163-.776-.449-1.042zm-2.263 26.344c0 3.99-3.964 9.293-10.875 14.548-3.618 2.751-7.284 4.933-9.903 6.365-2.62-1.432-6.285-3.614-9.904-6.365C12.14 50.75 8.175 45.448 8.175 41.458v-19.51h32.073c.749 0 1.356-.627 1.356-1.401s-.607-1.401-1.356-1.401H8.175V17.67c.445.023.892.035 1.338.035 7.45 0 14.46-3.204 19.44-8.837 4.98 5.633 11.992 8.837 19.44 8.837.447 0 .894-.012 1.34-.035v6.778H17.787c-.749 0-1.356.627-1.356 1.401s.607 1.401 1.356 1.401h31.944v14.208z"></path>
		<path fill="currentColor" fill-rule="evenodd" style="fill:var(--g-icon-highlight)" d="M46.96 19.721a1.185 1.185 0 0 0-.162-.398 1.109 1.109 0 0 0-.695-.47 1.067 1.067 0 0 0-.82.164 1.1 1.1 0 0 0-.487.921 1.124 1.124 0 0 0 .486.92 1.157 1.157 0 0 0 .394.166 1.07 1.07 0 0 0 .986-.302 1.122 1.122 0 0 0 .299-1.001zM14.183 25.26a1.13 1.13 0 0 0-.298-.567 1.157 1.157 0 0 0-.355-.239 1.067 1.067 0 0 0-1.025.102 1.054 1.054 0 0 0-.302.306 1.099 1.099 0 0 0-.163.399 1.106 1.106 0 0 0 1.071 1.324 1.073 1.073 0 0 0 .419-.086 1.157 1.157 0 0 0 .355-.239 1.122 1.122 0 0 0 .298-1z"></path>
		<path fill="currentColor" fill-rule="evenodd" d="M41.926 32.444c-1.72-1.636-4.071-2.536-6.622-2.536-3.258 0-5.236 1.404-6.358 2.673-1.12-1.27-3.094-2.673-6.349-2.673-2.55 0-4.9.9-6.619 2.536-1.875 1.786-2.867 4.284-2.867 7.222 0 2.552.576 4.67 1.867 6.865 2.21 3.76 8.114 7.741 12.362 10.41.229.143.418.262.56.354a1.931 1.931 0 0 0 2.084.002c.141-.09.329-.207.555-.348 4.253-2.656 10.165-6.627 12.394-10.418 1.289-2.192 1.863-4.309 1.863-6.865 0-2.938-.992-5.436-2.87-7.222zm-1.35 12.685c-2.145 3.648-9.173 8.038-11.482 9.48l-.148.093-.156-.098c-2.308-1.45-9.33-5.86-11.456-9.475-1.04-1.77-1.485-3.404-1.485-5.463 0-4.838 3.39-7.004 6.748-7.004 2.915 0 4.296 1.45 4.942 2.665a1.59 1.59 0 0 0 1.404.847h.002a1.59 1.59 0 0 0 1.404-.845c.649-1.217 2.035-2.667 4.955-2.667 3.362 0 6.754 2.166 6.754 7.004 0 2.062-.443 3.696-1.482 5.463z"></path>
	</g>
</svg>

