<svg xmlns="http://www.w3.org/2000/svg" xmlns:xlink="http://www.w3.org/1999/xlink" viewBox="0 0 71 71">
	<g fill="none">
		<path fill="currentColor" fill-rule="evenodd" d="M66.84 56.578h-3.328v-13.66c0-3.422-2.096-6.365-5.072-7.612V22.742a6.941 6.941 0 0 0-6.933-6.933h-2.76v-2.816c1.368-.867 3.898-2.783 3.898-5.102 0-2.057-1.635-3.73-3.645-3.73a3.58 3.58 0 0 0-1.64.4 3.582 3.582 0 0 0-1.64-.4c-1.12 0-2.123.519-2.792 1.335.016-.153.026-.306.026-.46C42.954 2.259 40.755 0 38.053 0c-.906 0-1.79.261-2.553.739A4.819 4.819 0 0 0 32.947 0c-2.702 0-4.901 2.259-4.901 5.036 0 .154.01.307.026.46a3.605 3.605 0 0 0-2.791-1.336 3.58 3.58 0 0 0-1.64.4A3.582 3.582 0 0 0 22 4.16c-2.01 0-3.645 1.674-3.645 3.731 0 2.32 2.53 4.235 3.899 5.102v2.816h-2.76a6.941 6.941 0 0 0-6.934 6.933v12.564c-2.976 1.247-5.072 4.19-5.072 7.613v13.66H4.16A4.165 4.165 0 0 0 0 60.738a4.165 4.165 0 0 0 4.16 4.16h26.21v4.714c0 .766.62 1.387 1.386 1.387h7.488c.766 0 1.387-.62 1.387-1.387v-4.715H66.84a4.165 4.165 0 0 0 4.16-4.16 4.165 4.165 0 0 0-4.16-4.16zM51.507 18.582c1.27 0 2.408.573 3.171 1.472l-.002.053c0 .475-.088.938-.26 1.375a3.735 3.735 0 0 1-3.494 2.378 3.758 3.758 0 0 1-3.754-3.753v-1.525h4.339zM45.719 6.934a.84.84 0 0 1 .616.28 1.387 1.387 0 0 0 2.05 0 .835.835 0 0 1 .615-.28c.48 0 .872.43.872.957 0 .68-1.22 1.853-2.512 2.695-1.191-.78-2.512-1.96-2.512-2.695 0-.528.39-.957.871-.957zm-3.642.88l-.002.077c0 2.32 2.53 4.235 3.898 5.102v2.816h-9.086v-3.267c1.289-.788 3.843-2.537 5.19-4.728zm2.318 10.768v1.525a3.758 3.758 0 0 1-3.754 3.754 3.758 3.758 0 0 1-3.754-3.754v-1.525h7.508zM32.947 2.773c.58 0 1.123.245 1.528.69a1.387 1.387 0 0 0 2.05 0 2.052 2.052 0 0 1 1.528-.69c1.173 0 2.128 1.015 2.128 2.263 0 1.714-2.824 3.95-4.681 5.103-1.858-1.154-4.68-3.389-4.68-5.103 0-1.248.954-2.263 2.127-2.263zm-4.022 5.118l-.002-.077c1.347 2.19 3.901 3.94 5.19 4.729v3.266h-9.086v-2.816c1.369-.867 3.898-2.783 3.898-5.102zm-2.32 10.691h7.508v1.525a3.758 3.758 0 0 1-3.754 3.754 3.758 3.758 0 0 1-3.753-3.754v-1.525zm-5.477-10.69c0-.529.391-.958.872-.958.313 0 .52.176.615.28a1.387 1.387 0 0 0 2.05 0 .835.835 0 0 1 .616-.28c.48 0 .871.43.871.957 0 .68-1.22 1.853-2.511 2.695-1.192-.78-2.513-1.96-2.513-2.695zm-1.635 10.69h4.339v1.525a3.758 3.758 0 0 1-3.754 3.754 3.746 3.746 0 0 1-3.754-3.754l-.002-.053a4.152 4.152 0 0 1 3.171-1.472zm-4.16 6.006a6.518 6.518 0 0 0 9.886-.466 6.518 6.518 0 0 0 5.14 2.512 6.518 6.518 0 0 0 5.14-2.512 6.518 6.518 0 0 0 5.141 2.512 6.518 6.518 0 0 0 5.141-2.512 6.518 6.518 0 0 0 5.14 2.512c1.844 0 3.54-.757 4.746-2.036v5.632h-4.89a1.387 1.387 0 1 0 0 2.774h4.89v1.664H15.333v-10.08zm-5.071 18.33a5.484 5.484 0 0 1 5.477-5.477h39.522a5.484 5.484 0 0 1 5.477 5.478v.014A3.943 3.943 0 0 1 56.8 46.87a3.943 3.943 0 0 1-3.938-3.938V41.74a1.387 1.387 0 1 0-2.774 0v1.193a3.943 3.943 0 0 1-3.938 3.938 3.943 3.943 0 0 1-3.938-3.938V41.74a1.387 1.387 0 1 0-2.774 0v1.193A3.943 3.943 0 0 1 35.5 46.87a3.943 3.943 0 0 1-3.938-3.938V41.74a1.387 1.387 0 1 0-2.774 0v1.193a3.943 3.943 0 0 1-3.938 3.938 3.943 3.943 0 0 1-3.938-3.938V41.74a1.387 1.387 0 1 0-2.774 0v1.193A3.943 3.943 0 0 1 14.2 46.87a3.943 3.943 0 0 1-3.938-3.938v-.014zm27.595 25.309h-4.714v-3.329h4.714v3.329zm28.983-6.102H4.16a1.388 1.388 0 0 1-1.387-1.387c0-.764.623-1.386 1.387-1.386h25.007a1.387 1.387 0 1 0 0-2.774H10.262v-8.215a6.674 6.674 0 0 0 3.938 1.282 6.703 6.703 0 0 0 5.325-2.633 6.703 6.703 0 0 0 5.325 2.633 6.704 6.704 0 0 0 5.325-2.633 6.704 6.704 0 0 0 5.325 2.633 6.704 6.704 0 0 0 5.325-2.633 6.703 6.703 0 0 0 5.325 2.633 6.703 6.703 0 0 0 5.325-2.633 6.703 6.703 0 0 0 5.325 2.633c1.47 0 2.831-.477 3.938-1.282v8.215H41.74a1.387 1.387 0 1 0 0 2.774h25.1c.764 0 1.387.622 1.387 1.386 0 .765-.623 1.387-1.387 1.387z"></path>
		<path fill="currentColor" fill-rule="evenodd" style="fill:var(--g-icon-highlight)" d="M37.22 58.046a1.811 1.811 0 0 0-1.27-.527c-.473 0-.937.192-1.271.527a1.811 1.811 0 0 0-.527 1.27c0 .473.192.937.527 1.271.334.335.798.527 1.27.527.473 0 .937-.192 1.271-.527.335-.334.527-.798.527-1.27 0-.473-.192-.937-.527-1.271zm9.525-27.489h-.022c-.987 0-1.786.805-1.786 1.797 0 .993.8 1.798 1.786 1.798h.022c.987 0 1.787-.805 1.787-1.798 0-.992-.8-1.797-1.787-1.797z"></path>
	</g>
</svg>

